0 800.974302719 1178.48629667 809.432484119 902.832585211 1185.02135848 
8 1379.09222682 1306.13453397 1533.43788191 1456.70842692 1784.81730343 
703 5266.73230793 5977.26966524 4346.91887896 5067.56629312 5376.81360297 
1391 1302.16112182 1976.15271776 1550.66322395 1532.40449724 1418.34810442 
1638 1742.86419101 1767.239471 1754.01319783 1725.74269033 1825.4192044 
3601 1730.61244465 1743.37583008 1727.76589818 1711.36607831 1709.44990072 
6308 1723.18965358 1735.21885899 1728.96406754 1736.22171669 1702.67827737 
9267 1730.03509729 1752.03179233 1790.17863097 1750.36234018 1704.7159753 
12177 1743.80194707 1762.73234494 1853.01255745 1755.90596052 1729.17904408 
15206 1736.65868293 1786.13725371 1715.27604474 1690.03803629 1734.93271749 
16613 3249.22320479 3388.90944135 3431.37225655 3213.92515055 3143.79289785 
16749 4583.07742533 5008.27632226 4888.85356654 4259.98358529 4353.12369691 
16907 6344.62982193 6407.86321029 7265.22393504 6024.8089692 7497.17664314 
17006 5545.12140602 6908.66289157 6425.41449533 6199.18876798 7130.28467458 
17015 1764.45717689 1827.94049512 1796.70123582 1802.6886375 1814.48358401 
18027 1777.11654123 1852.01357041 1830.61763565 1836.74756241 1781.2799459 
19042 1784.84225875 1895.95643763 1811.39787945 1838.05086379 1775.3079088 
20068 1802.73396937 1931.15219894 1870.21154486 1815.8044622 1796.81632116 
21128 1793.3338346 1943.00440929 1911.71487358 2119.60564468 1866.85007194 
22185 1809.05983622 1899.62526146 1795.61639612 1726.24883442 1774.19017601 
23144 1803.32829369 1980.93814905 1896.03869948 1819.95388955 1844.03009307 
24102 1861.69511733 2180.01815267 1953.31547303 1943.17263451 2128.44770415 
25116 1802.97119623 2097.02601272 1979.84723936 1938.31265153 1948.06254473 
26168 1860.69537908 2062.55152197 2075.70576197 2009.67758874 2102.75641834 
27237 1839.22354783 2078.95814399 1988.95616254 1970.87561704 2047.34339561 
28242 1832.68961324 2054.77987468 2202.29856234 1994.61894179 2044.67669119 
29200 1795.65584838 2153.47918537 2323.71342879 2369.1347681 1967.33330708 
30135 1749.03386915 2244.38523724 2514.09938211 2104.89730703 2060.7838049 
31009 1755.68044285 2218.28722635 2336.53076626 2183.26341897 2439.51108181 
31917 1950.025996 2334.64416277 1961.66323001 1823.20293251 1915.63806342 
32612 2056.05911844 2528.84411899 2483.48120037 2412.99508395 2260.17300737 
33522 1803.46536613 2225.47853742 2167.92294198 2121.80027336 2128.05485208 
34401 1743.76983112 2033.12260243 2152.02550548 2141.48836065 2126.93483139 
35239 1731.47107232 2036.63780349 1849.11431463 1952.4557577 1920.37525287 
35896 1703.5292034 1933.87839248 1790.99606828 1785.30646906 2012.29878085 
36472 1713.1449717 1964.92180592 1890.56953895 1731.43724759 1915.0132152 
37353 1687.23390784 1844.74689762 1818.77623109 1710.82475134 1760.34380632 
37931 1738.77268071 1723.2016638 1780.79830057 1738.73090136 1732.01780323 
38453 1839.24546154 1975.04799035 1853.65960107 1896.02060764 1830.29080946 
39225 1717.83533725 1801.18030574 1951.5511589 1715.40023668 1712.44682161 
39858 1722.47845772 1776.96766057 1807.90692095 1876.91895878 1722.69567681 
40350 1790.47543711 1835.69725956 1941.26290763 1855.96940777 1800.14312012 
41055 1716.64966872 1754.51062262 1855.76267165 1824.72530507 1764.12114857 
41790 1757.15047142 1760.15154816 1711.71813788 1769.39487157 1755.50189797 
42314 1937.484738 2204.79963828 2093.61107662 2085.71087473 2145.29220104 
43066 1610.13074687 1678.56078985 1730.09275114 1958.85776107 1735.41596069 
43681 1770.23301583 1922.30101777 1792.25060271 1762.31849674 1843.49211923 
44123 1667.92632106 2029.14524968 1702.88711082 1786.74208968 1715.94051554 
44855 1731.97062746 1977.44372319 1878.97522309 2037.29325189 2003.33060513 
45441 1921.12629881 1780.31463761 1763.74707058 1847.31300606 1792.37684968 
45867 1662.95762956 1656.91495324 1630.04020787 1694.19748588 1522.98757071 
46544 1741.86990105 1690.23458275 1707.34414377 1772.08962676 1711.38889747 
47044 1652.6311362 1696.3922277 1807.66697038 1701.716263 1715.19781437 
47648 1733.34028381 1697.44211476 1899.61292031 1993.83360994 1706.27860993 
48027 1714.20776487 1675.24117129 1884.32839775 1779.43427764 1747.77417182 
48795 1828.83384996 1706.08046093 1865.88503357 1917.8134794 2029.86414464 
49299 1724.39726335 2098.31638585 1886.39066454 1878.45232549 1918.60556723 
49806 1628.08437066 1834.19754112 1938.88809684 2015.92348278 1939.98475706 
50594 1682.58711336 1314.52519552 1378.95164941 1274.06271723 1390.42289991 
50945 1618.93384092 1304.19247024 1320.49136069 1704.21894289 1371.73819443 
51410 1628.06778799 1285.15960497 1193.65096664 1255.54219701 1218.11523016 
51638 1663.58266123 420.861210013 405.016322124 410.628554299 391.750086955 
51772 1690.64320204 1863.34503686 1590.96804791 1519.99185604 1487.76262509 
52517 1699.60576765 1546.66063376 1670.84406064 1623.35057817 1816.71720336 
52979 1700.51003053 1572.34300037 1523.63611774 1505.06315174 1539.39160377 
53519 1721.61259858 1594.76628633 1691.69124827 1651.37836336 1657.45375043 
53914 1782.2248967 1701.46109709 1687.79194975 1639.91226592 1576.21036512 
54540 1663.31174092 1596.93861264 1710.55019702 1526.34351047 1547.50808933 
55011 1669.45973295 1606.55867948 1618.49989691 1542.4941745 1473.90908017 
55559 1652.96366676 1596.46128501 1755.89614981 1611.41137648 1481.88824706 
55928 1716.08735295 1641.17646091 1650.46243154 1628.78187407 1605.75556341 
56549 1710.23631541 1637.51522336 1604.77804923 1602.1807313 1613.50298595 
57022 1755.03656872 1750.7003042 1726.10176884 1736.65872215 1815.13867944 
57551 1675.77233553 1572.47364954 1540.2204656 1567.28880074 1674.80561681 
57961 1945.75498151 1868.69691314 1873.50237225 1794.12046529 1923.86796046 
58563 1677.84097235 1569.43178339 1538.30200427 1694.31349871 1626.50162509 
59091 1675.3434789 1519.95039663 1493.59113246 1418.58874646 1467.79032304 
59461 1715.0508946 1568.30688561 1552.61357015 1552.97790846 1603.35682714 
60045 1776.84925904 1530.42923222 1489.13423333 1450.99711352 1324.33012932 
60445 1687.05284819 1601.09166049 1648.52689169 1652.44034706 1878.32994137 
60984 1705.42812423 1534.85944578 1498.5990367 1524.79779719 1548.52512182 
61353 1623.39711445 1490.64588134 1487.50569389 1590.4997996 1514.02429185 
61982 1581.24229249 1603.13636847 1528.90331398 1514.8807762 1512.20483919 
62619 1654.60332975 1644.21392554 1970.24530569 1726.20958514 1648.65290451 
63093 1941.5269451 1777.67507054 2131.77354587 2005.57284191 1746.07085289 
63519 1609.09172924 1646.24768508 1626.78726557 1574.53291713 1536.41236386 
64137 1628.54688889 1658.29333847 1593.54898488 1604.22579018 1705.62878887 
64572 1683.14487443 1577.44862579 1468.42973989 1441.01136069 1468.17745581 
65103 1711.46503051 1497.79478645 1596.02940987 1512.33214631 1560.1844825 
65465 1710.44707265 1538.73166653 1521.77325015 1608.30267574 1539.48484183 
66075 1634.52765184 1561.53022007 1726.02306712 1692.97237252 1669.56821007 
66531 1651.48081553 1603.6469077 1537.25458812 1808.25661941 1529.8477891 
67068 1626.45881465 1667.81765583 1636.08653959 1602.01236806 1564.73452364 
67431 1723.38588795 1611.847473 1313.53399276 1293.40086066 1378.78724468 
67898 1973.87765903 1765.90032519 1808.86921114 1912.64701511 1891.63743018 
67974 49888.138246 47647.7914464 50018.5853945 47744.0112962 47597.6297828 
68058 1348.11101614 1439.24658015 1382.01207199 1331.3924009 1451.93954619 
