0 0
566 1
568 0
2918 3
5073 0
24730 1
25315 0
34432 1
35016 0
36252 3
36928 0
40193 1
40778 0
42934 1
43212 3
43569 0
46004 1
46486 0
48396 1
48796 0
49660 1
49817 0
53056 2
53420 0
54799 2
55264 0
59028 1
59433 0
61297 2
61450 0
63498 2
63756 0
