0 910.924967539 994.104251109 718.874578133 803.01035256 835.692358984 
8 1348.69692473 1315.81071152 1107.29544051 1317.34757483 1211.38565192 
568 4396.8828638 4437.3074479 4425.62150363 4338.71395517 4445.1434174 
1391 926.176316406 967.006424708 840.797310346 1083.11272981 1023.10740316 
1455 1007.21939579 1015.9756081 1070.57662429 997.695975223 1046.26155989 
2448 1018.81788502 1132.80549962 997.902202059 985.935565156 1021.08109073 
3415 1026.47131395 1076.92884333 983.390387064 1002.33183571 996.617601469 
5164 1011.77818745 1003.72543604 984.577608172 997.014439612 1044.85104165 
7000 1008.01721779 1018.02974138 1299.97895856 1004.83696353 990.016986779 
8898 1007.78454026 1003.61826456 1035.2326558 1029.2469232 1023.86249372 
10751 1002.34691729 1002.44039181 1058.72541122 1001.11734077 1019.2175253 
12675 1018.04535465 998.511950079 1018.38030951 1007.61631664 998.158646024 
14651 1013.31960268 1033.11933938 1027.15392198 1023.4090218 1011.05182081 
15606 1022.77734611 756.825111436 756.554245102 761.373326909 761.576968905 
16577 1091.2831023 1035.15739131 1036.38300499 1041.16271111 1053.40815564 
16701 1796.19158138 1988.43726703 1941.30836208 2108.21469434 1961.96385259 
16749 3784.58844414 3813.36078066 3818.17533739 3984.05420949 3816.62054336 
16907 6123.12737645 5644.8327348 5997.77367975 5769.29941202 5883.6790713 
17006 5990.67857884 5015.63311262 4488.70803802 3973.88634493 5626.36740207 
17015 1152.92206103 1114.88604547 1137.69643362 1137.77475285 1126.73621012 
17861 1035.27768367 1017.01311464 997.526826313 1066.78215719 1233.6143466 
18543 1045.9637014 1191.22806993 1055.49756925 1022.49911936 1048.07897999 
19130 1167.41575019 1299.06483038 1179.46759408 1162.00565326 1155.20936643 
19795 1126.53856753 1140.26842646 1105.69739709 1136.45493996 1120.56270819 
20675 1059.97266769 1055.18618302 1217.65494972 1025.83439789 1057.80523202 
21365 1011.20332141 1023.75137811 1106.11292741 1016.02507044 1013.76444662 
22045 1022.27402846 899.204573235 920.628575453 953.547162988 901.384350167 
22776 1050.48734207 853.594581679 1074.89285931 818.259057634 830.573525833 
23155 1041.36627454 913.310429452 911.275205187 904.966389071 1124.52095796 
23772 1091.95029342 1046.00319178 1068.63319059 1103.48333718 1078.62536809 
24506 1029.22745337 1209.94723255 1036.69195356 1042.16779253 1036.43026514 
25105 1055.22539006 1070.19513432 1055.69605708 1230.11351792 1064.92794223 
25640 1090.18909283 1138.07758297 1096.75926899 1327.05859582 1115.51170161 
26492 1064.14946975 1068.51176209 1053.99327643 1024.26825542 1046.35730295 
27237 1045.85359274 1049.85330796 1038.10972224 1046.91897112 1112.30022587 
27823 1066.09579761 1083.70621057 1045.91759094 1084.17855875 1069.55524709 
28613 1076.16065308 1308.91310342 1061.50614571 1042.84916291 1078.97466263 
29286 1032.77885253 1063.49071149 1041.84582335 1078.22269395 1086.83081193 
29870 1144.29535223 1175.61015092 1164.16470236 1176.35864839 1155.75340652 
30491 1145.56582695 1108.77860622 1367.78999635 1090.67722884 1107.27828066 
31343 1032.5890651 1048.27959081 1056.29831922 1102.15910068 1044.53069138 
32089 1052.38292063 1084.32583868 1079.20527991 1073.36696645 1073.39279913 
32674 1063.33172135 788.077314335 812.421578162 786.712751923 797.742488352 
33344 1085.00143901 1036.68838543 1046.9859954 1063.41018126 1041.95099989 
33908 1069.18222639 1066.555462 1096.52881689 1068.7477631 1056.72023259 
34494 1074.65944949 1063.54884075 1076.59699541 1030.5276408 1076.60197643 
35284 1028.51316918 1036.19738729 1027.99704013 1022.81039743 1046.37381721 
35946 1034.72440434 1027.37824149 1023.38206896 1220.77670348 1024.80413922 
36641 1080.66775121 1090.80706202 1072.87233008 1062.24934365 1082.82857159 
37405 1041.74937945 1045.59013806 1048.30896757 1103.15984946 1286.9519724 
38078 1053.34550822 1028.49642614 1039.41582646 1020.81918796 1096.87458208 
38655 1161.63897232 1392.60802964 1173.95944603 1135.66345368 1166.28161279 
39283 1113.79735561 1141.17656266 1132.44549615 1107.05452261 1153.32891046 
40135 1036.24950988 1068.22515547 1058.70395583 1068.3972988 1051.61275508 
40808 1090.72648159 1097.37268683 1282.19304153 1075.32785425 1122.17334727 
41501 1131.04629298 1097.91629178 1119.10335451 1168.71665664 1120.25241123 
42266 1086.17949644 849.886882459 1088.21473492 808.440723133 830.692917602 
42836 1033.10355333 807.453054595 797.088863009 791.239282813 923.179531397 
43223 1041.81085571 1002.42975113 1040.73453415 1044.97280975 1035.7905163 
43918 1094.28705136 1274.26716449 1065.12064088 1080.11401015 1056.67793001 
44294 1079.80848621 1068.80121872 1062.3816722 1240.63810409 1084.5686266 
44976 1033.0266518 1048.70305105 1044.72349248 1205.57256595 1063.28198309 
45687 1171.05760618 1180.61635856 1183.57535188 1144.14426632 1163.41246325 
46117 1162.73584088 1174.27154027 1157.56956998 1177.92988784 1185.8722847 
46886 1030.17153086 1043.27070417 1035.76787653 1091.70915343 1186.25675709 
47592 1153.20666671 1300.93891675 1144.11336626 1182.43984823 1146.16810441 
48027 1198.51058782 1222.18444408 1195.70872245 1167.13287094 1195.88851435 
48796 1068.80364279 1074.87473702 1072.99254185 1059.56550318 1058.48268889 
49509 1127.59653449 1127.69200547 1256.47920851 1153.34046472 1127.86578463 
49937 1198.95841202 1196.73206723 1221.33626089 1162.8794375 1208.34210086 
50706 1058.21092728 1066.92181874 1064.12168598 1038.99154542 1039.76742557 
51410 1080.40129093 961.110104529 1001.70438842 958.022163895 952.608620708 
51762 1063.66521736 1001.37243554 1008.86877214 1000.82340135 1007.25325837 
52658 1033.83138211 1017.32487558 1018.84883235 1036.01440434 1021.043466 
53228 1086.91601494 1071.74718358 1076.79058834 1081.76141364 1099.62753749 
53797 1058.42309259 1046.34600856 1056.59943302 1241.46834427 1033.96273376 
54399 1077.29317035 1058.35996355 1099.64057421 1034.30177549 1041.64791186 
54975 1047.43744227 1067.54371582 1033.59798116 1051.02629441 1041.61174921 
55660 1043.4837489 1034.22426453 1031.49299788 1084.97007629 1222.94920998 
56076 1089.89253136 1139.0148192 1109.32005774 1071.53667403 1086.79593477 
56691 1069.11355865 1200.21362252 1056.24910869 1046.22175577 1045.32931022 
57403 1121.11612655 1176.67474793 1077.27339437 1095.95940072 1124.12326615 
57822 1167.86940264 1194.15793961 1186.4750537 1192.87208937 1152.45999526 
58563 1044.31792016 1049.88310902 1205.72147968 1064.81239394 1069.55603976 
59276 1072.21377542 991.419816627 995.76365423 1020.42559633 993.736575915 
59667 1038.22745789 968.928143546 1220.25893722 967.424822717 941.347055737 
60387 1062.99357237 928.951929235 968.404705724 958.570938961 1104.92701354 
60875 1168.89943748 1146.62069852 1159.37217372 1259.91048227 1155.90760834 
61336 1042.61277633 1251.84188986 1038.27722512 1240.00462266 1056.38086015 
62216 1038.60909394 1039.56071677 1044.82387746 1043.73156554 1061.8101632 
62778 1079.11177187 1102.65582052 1099.56352847 1308.46583982 1103.95148968 
63489 1066.08031239 1070.46038705 1040.83484949 1041.55182425 1045.8180246 
63914 1070.40995744 1051.21612243 1054.80379772 1076.29174463 1140.85708209 
64520 1050.70080459 1036.28424064 1047.29782211 1077.96335246 1060.33615453 
65237 1117.83831276 1248.295646 1090.66217144 1156.17432068 1107.56416642 
65651 1148.46938312 1213.15554011 1167.22546564 1149.55021497 1178.49388426 
66392 1033.23430805 1050.20048074 1037.9686248 1020.74647518 1032.11591904 
67096 1158.24475377 1149.83750079 1291.54619253 1168.31535577 1155.73423406 
67533 1725.53601441 1712.80741456 1713.32014573 1710.48164198 1728.37168001 
67974 34315.8951499 33677.7350649 33715.7595473 33627.2326182 34800.3063683 
68058 813.291101328 857.487283337 817.636011821 814.612722176 845.885110397 
